<?xml version="1.0" encoding="utf-8"?>
<COLLADA xmlns="http://www.collada.org/2005/11/COLLADASchema" version="1.4.1">
	<asset>
		<contributor>
			<authoring_tool>Softimage|XSI Softimage Advanced version 7.5.191.0</authoring_tool>
		</contributor>
		<created>2010-02-04T12:35:17Z</created>
		<modified>2010-02-04T12:35:17Z</modified>
		<revision>1.4.1</revision>
		<unit meter="0.1" name="decimetre"></unit>
		<up_axis>Y_UP</up_axis>
	</asset>
	<library_cameras>
		<camera id="cameras_0">
			<optics>
				<technique_common>
					<perspective>
						<xfov>53.638000</xfov>
						<aspect_ratio>1.333333</aspect_ratio>
						<znear>0.100000</znear>
						<zfar>32768.000000</zfar>
					</perspective>
				</technique_common>
			</optics>
		</camera>
	</library_cameras>
	<library_effects>
		<effect id="concreteDecals_fx">
			<profile_COMMON>
				<technique sid="default">
					<phong>
						<emission>
							<color sid="emission">0.000000 0.000000 0.000000 1.000000</color>
						</emission>
						<ambient>
							<color sid="ambient">0.300000 0.300000 0.300000 0.000000</color>
						</ambient>
						<diffuse>
							<color sid="diffuse">0.700000 0.700000 0.700000 0.000000</color>
						</diffuse>
						<specular>
							<color sid="specular">1.000000 1.000000 1.000000 0.000000</color>
						</specular>
						<shininess>
							<float sid="shininess">50.000000</float>
						</shininess>
						<reflective>
							<color sid="reflective">0.000000 0.000000 0.000000 0.000000</color>
						</reflective>
						<reflectivity>
							<float sid="reflectivity">1.000000</float>
						</reflectivity>
						<transparent opaque="RGB_ZERO">
							<color sid="transparent">0.000000 0.000000 0.000000 0.000000</color>
						</transparent>
						<transparency>
							<float sid="transparency">1.000000</float>
						</transparency>
						<index_of_refraction>
							<float sid="index_of_refraction">1.000000</float>
						</index_of_refraction>
					</phong>
				</technique>
			</profile_COMMON>
		</effect>
	</library_effects>
	<library_materials>
		<material id="concreteDecals">
			<instance_effect url="#concreteDecals_fx"></instance_effect>
		</material>
	</library_materials>
	<library_geometries>
		<geometry id="geometries_0">
			<mesh>
				<source id="geometries_0-Pos">
					<float_array id="geometries_0-Pos-array" count="12">
						-4.000000 0.000000 -4.000000 
						-4.000000 0.000000 4.000000 
						4.000000 0.000000 -4.000000 
						4.000000 0.000000 4.000000
					</float_array>
					<technique_common>
						<accessor source="#geometries_0-Pos-array" count="4" stride="3">
							<param name="X" type="float"/>
							<param name="Y" type="float"/>
							<param name="Z" type="float"/>
						</accessor>
					</technique_common>
				</source>
				<source id="geometries_0-XSINormal">
					<float_array id="geometries_0-XSINormal-array" count="12">
						0.000000 1.000000 0.000000 
						0.000000 1.000000 0.000000 
						0.000000 1.000000 0.000000 
						0.000000 1.000000 0.000000
					</float_array>
					<technique_common>
						<accessor source="#geometries_0-XSINormal-array" count="4" stride="3">
							<param name="X" type="float"/>
							<param name="Y" type="float"/>
							<param name="Z" type="float"/>
						</accessor>
					</technique_common>
				</source>
				<source id="geometries_0-Texture_Projection">
					<float_array id="geometries_0-Texture_Projection-array" count="8">
						0.268926 0.275473 
						0.268926 0.000000 
						0.653447 0.000000 
						0.653447 0.275473
					</float_array>
					<technique_common>
						<accessor source="#geometries_0-Texture_Projection-array" count="4" stride="2">
							<param name="S" type="float"/>
							<param name="T" type="float"/>
						</accessor>
					</technique_common>
				</source>
				<vertices id="geometries_0-Vtx">
					<input semantic="POSITION" source="#geometries_0-Pos"/>
				</vertices>
				<polylist count="1" material="concreteDecals">
					<input semantic="VERTEX" source="#geometries_0-Vtx" offset="0"/>
					<input semantic="NORMAL" source="#geometries_0-XSINormal" offset="1"/>
					<input semantic="TEXCOORD" source="#geometries_0-Texture_Projection" offset="2"/>
					<vcount>
						4
					</vcount>
					<p>
						0 0 0 
						1 1 1 
						3 2 2 
						2 3 3
					</p>
				</polylist>
			</mesh>
		</geometry>
		<geometry id="geometries_1">
			<mesh>
				<source id="geometries_1-Pos">
					<float_array id="geometries_1-Pos-array" count="9">
						-2.221636 -0.685419 -1.372704 
						-2.221636 -0.685419 1.372704 
						2.221636 -0.685419 -1.372704
					</float_array>
					<technique_common>
						<accessor source="#geometries_1-Pos-array" count="3" stride="3">
							<param name="X" type="float"/>
							<param name="Y" type="float"/>
							<param name="Z" type="float"/>
						</accessor>
					</technique_common>
				</source>
				<source id="geometries_1-XSINormal">
					<float_array id="geometries_1-XSINormal-array" count="0">
					</float_array>
					<technique_common>
						<accessor source="#geometries_1-XSINormal-array" count="0" stride="3">
							<param name="X" type="float"/>
							<param name="Y" type="float"/>
							<param name="Z" type="float"/>
						</accessor>
					</technique_common>
				</source>
				<source id="geometries_1-Texture_Projection">
					<float_array id="geometries_1-Texture_Projection-array" count="6">
						0.268926 0.275473 
						0.268926 0.000000 
						0.653447 0.275473
					</float_array>
					<technique_common>
						<accessor source="#geometries_1-Texture_Projection-array" count="3" stride="2">
							<param name="S" type="float"/>
							<param name="T" type="float"/>
						</accessor>
					</technique_common>
				</source>
				<vertices id="geometries_1-Vtx">
					<input semantic="POSITION" source="#geometries_1-Pos"/>
				</vertices>
				<polylist count="1" material="concreteDecals">
					<input semantic="VERTEX" source="#geometries_1-Vtx" offset="0"/>
					<input semantic="NORMAL" source="#geometries_1-XSINormal" offset="1"/>
					<input semantic="TEXCOORD" source="#geometries_1-Texture_Projection" offset="2"/>
					<vcount>
						3
					</vcount>
					<p>
						0 0 0 
						1 1 1 
						2 2 2
					</p>
				</polylist>
			</mesh>
		</geometry>
	</library_geometries>
	<library_visual_scenes>
		<visual_scene id="visual_scenes_0" name="untitled">
			<node id="base01">
				<translate sid="translation">0.000000 0.000000 0.000000</translate>
				<rotate sid="rotation_z">0.000000 0.000000 1.000000 0.000000</rotate>
				<rotate sid="rotation_y">0.000000 1.000000 0.000000 0.000000</rotate>
				<rotate sid="rotation_x">1.000000 0.000000 0.000000 0.000000</rotate>
				<scale sid="scale">1.000000 1.000000 1.000000</scale>
				<node id="Camera_Root">
					<translate sid="translation">0.000000 2.000000 20.000000</translate>
					<rotate sid="rotation_z">0.000000 0.000000 1.000000 0.000000</rotate>
					<rotate sid="rotation_y">0.000000 1.000000 0.000000 0.000000</rotate>
					<rotate sid="rotation_x">1.000000 0.000000 0.000000 0.000000</rotate>
					<scale sid="scale">1.000000 1.000000 1.000000</scale>
					<node id="Camera">
						<translate sid="translation">-9.845410 12.019647 -4.046469</translate>
						<rotate sid="rotation_z">0.000000 0.000000 1.000000 -0.000000</rotate>
						<rotate sid="rotation_y">0.000000 1.000000 0.000000 -31.680000</rotate>
						<rotate sid="rotation_x">1.000000 0.000000 0.000000 -38.110592</rotate>
						<scale sid="scale">1.000000 1.000000 1.000000</scale>
						<instance_camera url="#cameras_0"/>
					</node>
					<node id="Camera_Interest">
						<translate sid="translation">0.000000 -2.685419 -20.000000</translate>
						<rotate sid="rotation_z">0.000000 0.000000 1.000000 0.000000</rotate>
						<rotate sid="rotation_y">0.000000 1.000000 0.000000 0.000000</rotate>
						<rotate sid="rotation_x">1.000000 0.000000 0.000000 0.000000</rotate>
						<scale sid="scale">1.000000 1.000000 1.000000</scale>
					</node>
				</node>
				<node id="start01">
					<translate sid="translation">0.000000 0.000000 0.000000</translate>
					<rotate sid="rotation_z">0.000000 0.000000 1.000000 0.000000</rotate>
					<rotate sid="rotation_y">0.000000 1.000000 0.000000 0.000000</rotate>
					<rotate sid="rotation_x">1.000000 0.000000 0.000000 0.000000</rotate>
					<scale sid="scale">1.000000 1.000000 1.000000</scale>
					<node id="decal150">
						<translate sid="translation">0.000000 -0.685419 0.000000</translate>
						<rotate sid="rotation_z">0.000000 0.000000 1.000000 0.000000</rotate>
						<rotate sid="rotation_y">0.000000 1.000000 0.000000 0.000000</rotate>
						<rotate sid="rotation_x">1.000000 0.000000 0.000000 0.000000</rotate>
						<scale sid="scale">0.555409 0.555409 0.343176</scale>
						<instance_geometry url="#geometries_0">
							<bind_material>
								<technique_common>
									<instance_material symbol="concreteDecals" target="#concreteDecals"></instance_material>
								</technique_common>
							</bind_material>
						</instance_geometry>
					</node>
					<node id="decal-1">
						<translate sid="translation">0.000000 0.000000 0.000000</translate>
						<rotate sid="rotation_z">0.000000 0.000000 1.000000 0.000000</rotate>
						<rotate sid="rotation_y">0.000000 1.000000 0.000000 0.000000</rotate>
						<rotate sid="rotation_x">1.000000 0.000000 0.000000 0.000000</rotate>
						<scale sid="scale">0.001000 0.001000 0.001000</scale>
						<instance_geometry url="#geometries_1">
							<bind_material>
								<technique_common>
									<instance_material symbol="concreteDecals" target="#concreteDecals"></instance_material>
								</technique_common>
							</bind_material>
						</instance_geometry>
					</node>
				</node>
			</node>
		</visual_scene>
	</library_visual_scenes>
	<scene>
		<instance_visual_scene url="#visual_scenes_0"/>
	</scene>
</COLLADA>
