<?xml version="1.0" encoding="utf-8"?>
<COLLADA xmlns="http://www.collada.org/2005/11/COLLADASchema" version="1.4.1">
	<asset>
		<contributor>
			<authoring_tool>Autodesk Softimage version 8.0.201.0 - Crosswalk 4.0</authoring_tool>
		</contributor>
		<created>2010-03-05T07:43:34Z</created>
		<modified>2010-03-05T07:43:34Z</modified>
		<revision>1.4.1</revision>
		<unit meter="0.1" name="decimetre"></unit>
		<up_axis>Y_UP</up_axis>
	</asset>
	<library_cameras>
		<camera id="cameras_0" name="cameras_0">
			<optics>
				<technique_common>
					<perspective>
						<xfov>53.638000</xfov>
						<aspect_ratio>1.662800</aspect_ratio>
						<znear>0.100000</znear>
						<zfar>32768.000000</zfar>
					</perspective>
				</technique_common>
			</optics>
		</camera>
	</library_cameras>
	<library_geometries>
		<geometry id="geometries_0" name="geometries_0">
			<mesh>
				<source id="geometries_0-Pos">
					<float_array id="geometries_0-Pos-array" count="48">
						-580.262817 -3.891783 304.002563 
						-569.498596 -3.891783 304.002563 
						-580.262817 6.872472 304.002563 
						-569.498596 6.872472 304.002563 
						-580.262817 -3.891783 314.766815 
						-569.498596 -3.891783 314.766815 
						-580.262817 6.872472 314.766815 
						-569.498596 6.872472 314.766815 
						-521.199646 -3.891783 338.645752 
						-510.435394 -3.891783 338.645752 
						-521.199646 6.872472 338.645752 
						-510.435394 6.872472 338.645752 
						-521.199646 -3.891783 349.410004 
						-510.435394 -3.891783 349.410004 
						-521.199646 6.872472 349.410004 
						-510.435394 6.872472 349.410004
					</float_array>
					<technique_common>
						<accessor source="#geometries_0-Pos-array" count="16" stride="3">
							<param name="X" type="float"/>
							<param name="Y" type="float"/>
							<param name="Z" type="float"/>
						</accessor>
					</technique_common>
				</source>
				<source id="geometries_0-XSINormal">
					<float_array id="geometries_0-XSINormal-array" count="144">
						0.000000 -0.000000 -1.000000 
						0.000000 -0.000000 -1.000000 
						0.000000 -0.000000 -1.000000 
						0.000000 -0.000000 -1.000000 
						-0.000000 -1.000000 0.000000 
						-0.000000 -1.000000 0.000000 
						-0.000000 -1.000000 0.000000 
						-0.000000 -1.000000 0.000000 
						-1.000000 0.000000 -0.000000 
						-1.000000 0.000000 -0.000000 
						-1.000000 0.000000 -0.000000 
						-1.000000 0.000000 -0.000000 
						1.000000 0.000000 0.000000 
						1.000000 0.000000 0.000000 
						1.000000 0.000000 0.000000 
						1.000000 0.000000 0.000000 
						0.000000 1.000000 0.000000 
						0.000000 1.000000 0.000000 
						0.000000 1.000000 0.000000 
						0.000000 1.000000 0.000000 
						0.000000 0.000000 1.000000 
						0.000000 0.000000 1.000000 
						0.000000 0.000000 1.000000 
						0.000000 0.000000 1.000000 
						0.000000 -0.000000 -1.000000 
						0.000000 -0.000000 -1.000000 
						0.000000 -0.000000 -1.000000 
						0.000000 -0.000000 -1.000000 
						-0.000000 -1.000000 0.000000 
						-0.000000 -1.000000 0.000000 
						-0.000000 -1.000000 0.000000 
						-0.000000 -1.000000 0.000000 
						-1.000000 0.000000 -0.000000 
						-1.000000 0.000000 -0.000000 
						-1.000000 0.000000 -0.000000 
						-1.000000 0.000000 -0.000000 
						1.000000 0.000000 0.000000 
						1.000000 0.000000 0.000000 
						1.000000 0.000000 0.000000 
						1.000000 0.000000 0.000000 
						0.000000 1.000000 0.000000 
						0.000000 1.000000 0.000000 
						0.000000 1.000000 0.000000 
						0.000000 1.000000 0.000000 
						0.000000 0.000000 1.000000 
						0.000000 0.000000 1.000000 
						0.000000 0.000000 1.000000 
						0.000000 0.000000 1.000000
					</float_array>
					<technique_common>
						<accessor source="#geometries_0-XSINormal-array" count="48" stride="3">
							<param name="X" type="float"/>
							<param name="Y" type="float"/>
							<param name="Z" type="float"/>
						</accessor>
					</technique_common>
				</source>
				<vertices id="geometries_0-Vtx">
					<input semantic="POSITION" source="#geometries_0-Pos"/>
				</vertices>
				<polylist count="12" material="borders">
					<input semantic="VERTEX" source="#geometries_0-Vtx" offset="0"/>
					<input semantic="NORMAL" source="#geometries_0-XSINormal" offset="1"/>
					<vcount>
						4 4 4 4 
						4 4 4 4 
						4 4 4 4
					</vcount>
					<p>
						0 0 
						2 1 
						3 2 
						1 3 
						0 4 
						1 5 
						5 6 
						4 7 
						0 8 
						4 9 
						6 10 
						2 11 
						1 12 
						3 13 
						7 14 
						5 15 
						2 16 
						6 17 
						7 18 
						3 19 
						4 20 
						5 21 
						7 22 
						6 23 
						8 24 
						10 25 
						11 26 
						9 27 
						8 28 
						9 29 
						13 30 
						12 31 
						8 32 
						12 33 
						14 34 
						10 35 
						9 36 
						11 37 
						15 38 
						13 39 
						10 40 
						14 41 
						15 42 
						11 43 
						12 44 
						13 45 
						15 46 
						14 47
					</p>
				</polylist>
			</mesh>
		</geometry>
	</library_geometries>
	<library_visual_scenes>
		<visual_scene id="visual_scenes_0" name="visual_scenes_0">
			<node id="base01" name="base01">
				<translate sid="translation">0.000000 0.000000 0.000000</translate>
				<rotate sid="rotation_z">0.000000 0.000000 1.000000 0.000000</rotate>
				<rotate sid="rotation_y">0.000000 1.000000 0.000000 0.000000</rotate>
				<rotate sid="rotation_x">1.000000 0.000000 0.000000 0.000000</rotate>
				<scale sid="scale">1.000000 1.000000 1.000000</scale>
				<node id="Camera_Root" name="Camera_Root">
					<translate sid="translation">0.000000 2.000000 20.000000</translate>
					<rotate sid="rotation_z">0.000000 0.000000 1.000000 0.000000</rotate>
					<rotate sid="rotation_y">0.000000 1.000000 0.000000 0.000000</rotate>
					<rotate sid="rotation_x">1.000000 0.000000 0.000000 0.000000</rotate>
					<scale sid="scale">1.000000 1.000000 1.000000</scale>
					<node id="Camera" name="Camera">
						<translate sid="translation">-1265.437500 1120.349976 -1002.295349</translate>
						<rotate sid="rotation_z">0.000000 0.000000 1.000000 -0.000000</rotate>
						<rotate sid="rotation_y">0.000000 1.000000 0.000000 -146.159988</rotate>
						<rotate sid="rotation_x">1.000000 0.000000 0.000000 -29.470592</rotate>
						<scale sid="scale">1.000000 1.000000 1.000000</scale>
						<instance_camera url="#cameras_0"/>
					</node>
					<node id="Camera_Interest" name="Camera_Interest">
						<translate sid="translation">-401.896393 244.062653 285.700470</translate>
						<rotate sid="rotation_z">0.000000 0.000000 1.000000 0.000000</rotate>
						<rotate sid="rotation_y">0.000000 1.000000 0.000000 0.000000</rotate>
						<rotate sid="rotation_x">1.000000 0.000000 0.000000 0.000000</rotate>
						<scale sid="scale">1.000000 1.000000 1.000000</scale>
					</node>
				</node>
				<node id="start01" name="start01">
					<translate sid="translation">0.000000 0.000000 0.000000</translate>
					<rotate sid="rotation_z">0.000000 0.000000 1.000000 0.000000</rotate>
					<rotate sid="rotation_y">0.000000 1.000000 0.000000 0.000000</rotate>
					<rotate sid="rotation_x">1.000000 0.000000 0.000000 0.000000</rotate>
					<scale sid="scale">1.000000 1.000000 1.000000</scale>
					<node id="colmesh-2" name="colmesh-2">
						<translate sid="translation">0.000000 0.000000 0.000000</translate>
						<rotate sid="rotation_z">0.000000 0.000000 1.000000 0.000000</rotate>
						<rotate sid="rotation_y">0.000000 1.000000 0.000000 0.000000</rotate>
						<rotate sid="rotation_x">1.000000 0.000000 0.000000 0.000000</rotate>
						<scale sid="scale">1.000000 1.000000 1.000000</scale>
						<instance_geometry url="#geometries_0">
							<bind_material>
								<technique_common>
									<instance_material symbol="borders" target="#borders"></instance_material>
								</technique_common>
							</bind_material>
						</instance_geometry>
					</node>
				</node>
				<node id="collision1" name="collision1">
					<translate sid="translation">0.000000 0.000000 0.000000</translate>
					<rotate sid="rotation_z">0.000000 0.000000 1.000000 0.000000</rotate>
					<rotate sid="rotation_y">0.000000 1.000000 0.000000 0.000000</rotate>
					<rotate sid="rotation_x">1.000000 0.000000 0.000000 0.000000</rotate>
					<scale sid="scale">1.000000 1.000000 1.000000</scale>
				</node>
			</node>
		</visual_scene>
	</library_visual_scenes>
	<scene>
		<instance_visual_scene url="#visual_scenes_0"/>
	</scene>
</COLLADA>
